<?xml version="1.0" encoding="UTF-8"?>
<svg width="24px" height="24px" viewBox="0 0 24 24" version="1.1" xmlns="http://www.w3.org/2000/svg" xmlns:xlink="http://www.w3.org/1999/xlink">
    <!-- Generator: Sketch 52.3 (67297) - http://www.bohemiancoding.com/sketch -->
    <title>icon/information/settings</title>
    <desc>Created with Sketch.</desc>
    <g id="icon/information/settings" stroke="none" stroke-width="1" fill="none" fill-rule="evenodd">
        <g>
            <rect id="bounds" x="0" y="0" width="24" height="24"></rect>
            <path d="M13.4980937,3.75188542 L13.8001146,5.733625 L13.8707708,6.19457292 L14.3141042,6.33647917 C14.6749063,6.4520625 14.9971146,6.58427083 15.3009167,6.74042708 L15.7205,6.95714583 L16.0977292,6.67254167 L17.6567188,5.49790625 L17.6741354,5.5139375 C18.197625,5.99507292 18.8372917,6.58209375 19.2624167,7.12319792 C19.1090313,7.32744792 18.9501042,7.529125 18.791375,7.731 C18.55625,8.03025 18.3203333,8.33088542 18.0953021,8.6418125 L17.8190104,9.02220833 L18.0402813,9.43664583 C18.2302813,9.79388542 18.3810938,10.1523125 18.487375,10.5030208 L18.6261146,10.9560521 L19.0941875,11.0276979 L21.0498021,11.3255625 L21.0498021,13.5258021 L19.0815208,13.8240625 L18.6308646,13.8931354 L18.4830208,14.3236042 C18.3415104,14.7358646 18.2112812,15.0426354 18.0586875,15.3189271 L17.8328646,15.7282188 L18.1000521,16.1119792 C18.4919271,16.6756458 18.9107188,17.1951771 19.3025937,17.6745313 C18.9142812,18.1335 18.0806562,18.9946354 17.6583021,19.3198125 L16.1325625,18.1253854 L15.7515729,17.8279167 L15.3226875,18.0501771 C15.0014687,18.2162292 14.6572917,18.3603125 14.3257812,18.466 L13.8620625,18.6138438 L13.8070417,19.0975521 L13.7785417,19.3510833 C13.7161979,19.9193021 13.6508854,20.5039479 13.5261979,21.0503958 L11.3035937,21.0503958 L11.0019687,19.0688542 L10.9317083,18.6081042 L10.4877812,18.4656042 C10.1269792,18.3500208 9.80417708,18.2178125 9.50136458,18.0616563 L9.08,17.8441458 L8.70217708,18.1305313 L7.15486458,19.3047708 C6.61178125,18.8137396 5.9628125,18.221375 5.53491667,17.6842292 C5.69047917,17.4778021 5.84980208,17.2749375 6.00991667,17.0708854 C6.24504167,16.7716354 6.48076042,16.4715938 6.70638542,16.1600729 L6.98228125,15.7800729 L6.76160417,15.3650417 C6.57021875,15.0052292 6.42,14.6442292 6.31589583,14.2927292 L6.17953125,13.8327708 L5.70453125,13.7629063 L3.75228125,13.4747396 L3.75228125,11.2746979 L5.71977083,10.9780208 L6.18428125,10.9081563 L6.32519792,10.4600729 C6.43088542,10.1240104 6.56883333,9.79823958 6.74854167,9.4635625 L6.96783333,9.05308333 L6.69846875,8.67347917 C6.30778125,8.12208333 5.89928125,7.60670833 5.50265625,7.12003125 C5.8749375,6.67669792 6.70816667,5.81734375 7.13546875,5.48761458 L8.67229167,6.678875 L9.05229167,6.97317708 L9.47919792,6.75230208 C9.80041667,6.58565625 10.1451875,6.44196875 10.4761042,6.33647917 L10.9402187,6.18863542 L10.9948438,5.70433333 L11.0233438,5.45040625 C11.0856875,4.88258333 11.1506042,4.29734375 11.2752917,3.75148958 L13.4980937,3.75148958 L13.4980937,3.75188542 Z M12.4010417,16.2873333 C14.5436875,16.2873333 16.2873333,14.5436875 16.2873333,12.4010417 C16.2873333,10.2581979 14.5436875,8.51475 12.4010417,8.51475 C10.2581979,8.51475 8.51475,10.2581979 8.51475,12.4010417 C8.51475,14.5436875 10.2581979,16.2873333 12.4010417,16.2873333 Z M13.7597396,3 L11.0423437,3 C10.8220625,3 10.6512604,3.14685417 10.6015833,3.34338542 C10.4050521,4.07785417 10.331625,4.87288542 10.2471146,5.62021875 C9.86711458,5.74134375 9.48691667,5.9010625 9.13264583,6.08472917 L7.44342708,4.77551042 C7.34605208,4.70208333 7.23601042,4.65240625 7.12577083,4.65240625 C6.70895833,4.65240625 5.05635417,6.439 4.76264583,6.84294792 C4.70208333,6.92923958 4.65240625,7.01553125 4.65240625,7.12577083 C4.65240625,7.23601042 4.70188542,7.3331875 4.77551042,7.41947917 C5.22715625,7.97028125 5.66791667,8.52108333 6.08472917,9.10869792 C5.88819792,9.47583333 5.73026042,9.84316667 5.60735417,10.23425 L3.33052083,10.5778333 C3.14685417,10.6146458 3,10.8349271 3,11.0185938 L3,13.7359896 C3,13.9436042 3.14685417,14.1399375 3.35446875,14.17675 L5.59448958,14.5072708 C5.71759375,14.9225 5.88819792,15.3264479 6.09759375,15.7191146 C5.68078125,16.2938646 5.22735417,16.832 4.81232292,17.3956667 C4.74997917,17.4819583 4.71316667,17.5664687 4.71316667,17.6767083 C4.71316667,17.7756667 4.73889583,17.8730417 4.79945833,17.9593333 C5.31364583,18.6682708 6.17102083,19.4282708 6.81919792,20.0160833 C6.90548958,20.1003958 7.01572917,20.1500729 7.12577083,20.1500729 C7.2358125,20.1500729 7.34605208,20.1132604 7.4305625,20.0398333 L9.15659375,18.7306146 C9.51284375,18.9142812 9.87997917,19.0611354 10.2581979,19.1824583 L10.6015833,21.4353437 C10.6255312,21.6427604 10.8218646,21.8024792 11.0423437,21.8024792 L13.7597396,21.8024792 C13.9800208,21.8024792 14.1510208,21.655625 14.2005,21.4590937 C14.3968333,20.724625 14.4702604,19.9295937 14.5549687,19.1824583 C14.9349687,19.0611354 15.3149687,18.9014167 15.6694375,18.71775 L17.3586562,20.0398333 C17.4560312,20.1003958 17.5662708,20.1500729 17.6763125,20.1500729 C18.0929271,20.1500729 19.7455312,18.3506146 20.0392396,17.9595313 C20.1126667,17.8732396 20.1494792,17.7871458 20.1494792,17.6769063 C20.1494792,17.5666667 20.1,17.456625 20.0265729,17.3719167 C19.5747292,16.8211146 19.1339687,16.2813958 18.7173542,15.6826979 C18.9136875,15.3266458 19.0605417,14.9595104 19.1947292,14.5682292 L21.4586979,14.2250417 C21.6550313,14.1882292 21.8018854,13.9679479 21.8018854,13.7842813 L21.8018854,11.0660938 C21.8018854,10.8586771 21.6550313,10.6621458 21.4474167,10.6253333 L19.2073958,10.2837292 C19.0844896,9.87978125 18.9136875,9.47583333 18.7044896,9.08296875 C19.1211042,8.50821875 19.5745313,7.97028125 19.9897604,7.40661458 C20.0519063,7.32032292 20.0887188,7.2358125 20.0887188,7.12577083 C20.0887188,7.02661458 20.0631875,6.92923958 20.0024271,6.8558125 C19.4882396,6.13420833 18.6308646,5.37401042 17.9826875,4.77551042 C17.8963958,4.70208333 17.7863542,4.65240625 17.6761146,4.65240625 C17.565875,4.65240625 17.4558333,4.68921875 17.3824063,4.76264583 L15.6452917,6.07186458 C15.2892396,5.88819792 14.9221042,5.74134375 14.5436875,5.62021875 L14.2005,3.36713542 C14.1765521,3.15971875 13.9802187,3 13.7597396,3 Z M12.4010417,15.53525 C10.6750104,15.53525 9.26683333,14.1270729 9.26683333,12.4010417 C9.26683333,10.6750104 10.6750104,9.26683333 12.4010417,9.26683333 C14.1270729,9.26683333 15.53525,10.6750104 15.53525,12.4010417 C15.53525,14.1270729 14.1270729,15.53525 12.4010417,15.53525 Z" id="Shape" fill="#454545"></path>
        </g>
    </g>
</svg>