<?xml version="1.0" encoding="UTF-8"?>
<svg width="34px" height="25px" viewBox="0 0 34 25" version="1.1" xmlns="http://www.w3.org/2000/svg" xmlns:xlink="http://www.w3.org/1999/xlink">
    <!-- Generator: Sketch 58 (84663) - https://sketch.com -->
    <title>review</title>
    <desc>Created with Sketch.</desc>
    <g id="Page-1" stroke="none" stroke-width="1" fill="none" fill-rule="evenodd">
        <g id="GoDysh_Splash_V03_121219" transform="translate(-1159.000000, -690.000000)">
            <g id="Group-32" transform="translate(1115.000000, 663.000000)">
                <g id="Group-30" transform="translate(44.000000, 27.000000)">
                    <g id="review">
                        <path d="M1.6,21.3709677 L32.4,21.3709677 L32.4,22.9767742 C32.4,23.8714755 31.6747013,24.5967742 30.78,24.5967742 L3.22000002,24.5967742 C2.32529871,24.5967742 1.6,23.8714755 1.6,22.9767742 L1.6,21.3709677 L1.6,21.3709677 Z" id="Rectangle" fill="#FFD542"></path>
                        <path d="M16.4,18.8645421 L16.4,6.0483871 L16.4,6.0483871 C25.3586513,6.36826254 29.6913461,10.7161401 29.3980845,19.0920198" id="Path-14" fill="#FFD542"></path>
                        <path d="M33.4516129,21.1111111 L32.3537419,21.1111111 L32.3537419,18.9272222 C32.3542903,18.9155556 32.3603226,18.9061111 32.3603226,18.8944444 C32.3603226,10.9411111 26.4382903,4.36611111 18.8272258,3.44722222 C19.0575484,3.09555556 19.1935484,2.675 19.1935484,2.22222222 C19.1935484,0.996666667 18.2097419,0 17,0 C15.7902581,0 14.8064516,0.996666667 14.8064516,2.22222222 C14.8064516,2.675 14.9424516,3.09611111 15.1727742,3.44777778 C7.565,4.37 1.64625806,10.9433333 1.64625806,18.895 L1.64625806,21.1111111 L0.548387097,21.1111111 C0.245129032,21.1111111 0,21.3594444 0,21.6666667 C0,21.9738889 0.245129032,22.2222222 0.548387097,22.2222222 L1.09677419,22.2222222 L1.09677419,22.7777778 C1.09677419,24.0033333 2.08058065,25 3.29032258,25 L30.7096774,25 C31.9194194,25 32.9032258,24.0033333 32.9032258,22.7777778 L32.9032258,22.2222222 L33.4516129,22.2222222 C33.754871,22.2222222 34,21.9738889 34,21.6666667 C34,21.3594444 33.754871,21.1111111 33.4516129,21.1111111 Z M17,1.11166667 C17.604871,1.11166667 18.0967742,1.61 18.0967742,2.22277778 C18.0967742,2.83555556 17.604871,3.33388889 17,3.33388889 C16.395129,3.33388889 15.9032258,2.83555556 15.9032258,2.22277778 C15.9032258,1.61 16.395129,1.11166667 17,1.11166667 Z M2.74303226,18.895 C2.74303226,10.9283333 9.13996774,4.44666667 17.0032903,4.445 C24.8572903,4.44666667 31.2476452,10.9127778 31.263,18.8661111 C31.2624516,18.8766667 31.2569677,18.8844444 31.2569677,18.895 L31.2569677,21.1111111 L2.74303226,21.1111111 L2.74303226,18.895 Z M30.7096774,23.8888889 L3.29032258,23.8888889 C2.68545161,23.8888889 2.19354839,23.3905556 2.19354839,22.7777778 L2.19354839,22.2222222 L31.8064516,22.2222222 L31.8064516,22.7777778 C31.8064516,23.3905556 31.3145484,23.8888889 30.7096774,23.8888889 Z" id="Shape" fill="#333333" fill-rule="nonzero"></path>
                        <path d="M16.9437825,5.64516129 C16.6430708,5.64516129 16.4,5.89019231 16.4,6.19332912 C16.4,6.49646593 16.6430708,6.74149695 16.9437825,6.74149695 C23.5431267,6.74149695 28.912435,12.1541061 28.912435,18.8066709 C28.912435,19.1098077 29.1555058,19.3548387 29.4562175,19.3548387 C29.7569292,19.3548387 30,19.1098077 30,18.8066709 C30,11.5489288 24.1429188,5.64516129 16.9437825,5.64516129 Z" id="Path" fill="#333333" fill-rule="nonzero"></path>
                    </g>
                </g>
            </g>
        </g>
    </g>
</svg>