<?xml version="1.0" encoding="UTF-8"?>
<svg width="33px" height="33px" viewBox="0 0 33 33" version="1.1" xmlns="http://www.w3.org/2000/svg" xmlns:xlink="http://www.w3.org/1999/xlink">
    <!-- Generator: Sketch 58 (84663) - https://sketch.com -->
    <title>Group 11</title>
    <desc>Created with Sketch.</desc>
    <g id="Dish-Listing-Desktop" stroke="none" stroke-width="1" fill="none" fill-rule="evenodd">
        <g id="16.-Dish-Listing---Sign-In-Button" transform="translate(-1271.000000, -26.000000)">
            <g id="Group-11" transform="translate(1272.000000, 27.000000)">
                <circle id="Oval" stroke="#333333" fill="#FFFFFF" cx="15.5" cy="15.5" r="15.5"></circle>
                <g id="avatar" transform="translate(9.000000, 7.000000)">
                    <path d="M9.29999945,13.7999992 C10.7911682,13.7999992 11.9999993,12.5911681 11.9999993,11.0999993 C11.9999993,10.1393561 11.4874612,9.63539927 10.7272031,9.300454 C10.5232424,9.21059548 10.3014525,9.13290126 10.0669467,9.06181669 C9.81871353,8.986571 9.57280535,8.3999995 9.29999945,8.3999995 C8.66294445,8.3999995 6.22630228,7.02701549 6.29999962,7.49999955 C6.92943614,11.5396763 1.858873,12.2320459 1.858873,13.0861596 C1.858873,14.5773283 7.80883071,13.7999992 9.29999945,13.7999992 Z" id="Oval" fill="#FFD542"></path>
                    <path d="M6.11099973,7.80599965 C6.12599973,7.80599965 6.14099973,7.80599965 6.15899972,7.80599965 C6.16499972,7.80599965 6.17099972,7.80599965 6.17699972,7.80599965 C6.18599972,7.80599965 6.19799972,7.80599965 6.20699972,7.80599965 C7.08599968,7.79099965 7.79699965,7.48199967 8.32199963,6.89099969 C9.47699958,5.58899975 9.28499958,3.35699985 9.26399959,3.14399986 C9.18899959,1.54499993 8.43299962,0.779999965 7.80899965,0.422999981 C7.34399967,0.155999993 6.8009997,0.0119999995 6.19499972,0 L6.17399972,0 C6.17099972,0 6.16499972,0 6.16199972,0 L6.14399973,0 C5.81099974,0 5.15699977,0.0539999976 4.5299998,0.410999982 C3.89999983,0.767999966 3.13199986,1.53299993 3.05699986,3.14399986 C3.03599986,3.35699985 2.84399987,5.58899975 3.99899982,6.89099969 C4.5209998,7.48199967 5.23199977,7.79099965 6.11099973,7.80599965 Z M3.85799983,3.21899986 C3.85799983,3.20999986 3.86099983,3.20099986 3.86099983,3.19499986 C3.95999982,1.04399995 5.48699975,0.812999964 6.14099973,0.812999964 L6.15299972,0.812999964 C6.15899972,0.812999964 6.16799972,0.812999964 6.17699972,0.812999964 C6.98699969,0.830999963 8.36399963,1.16099995 8.45699962,3.19499986 C8.45699962,3.20399986 8.45699962,3.21299986 8.45999962,3.21899986 C8.46299962,3.23999986 8.67299961,5.27999976 7.71899965,6.35399972 C7.34099967,6.7799997 6.83699969,6.98999969 6.17399972,6.99599969 C6.16799972,6.99599969 6.16499972,6.99599969 6.15899972,6.99599969 L6.15899972,6.99599969 C6.15299972,6.99599969 6.14999973,6.99599969 6.14399973,6.99599969 C5.48399975,6.98999969 4.97699978,6.7799997 4.60199979,6.35399972 C3.65099984,5.28599976 3.85499983,3.23699986 3.85799983,3.21899986 Z" id="Shape" fill="#000000" fill-rule="nonzero"></path>
                    <path d="M12.3239994,11.5079995 C12.3239994,11.5049995 12.3239994,11.5019995 12.3239994,11.4989995 C12.3239994,11.4749995 12.3209994,11.4509995 12.3209994,11.4239995 C12.3029995,10.8299995 12.2639995,9.44099958 10.9619995,8.9969996 C10.9529995,8.9939996 10.9409995,8.9909996 10.9319995,8.9879996 C9.57899957,8.64299961 8.45399962,7.86299965 8.44199962,7.85399965 C8.25899963,7.72499965 8.00699964,7.76999965 7.87799965,7.95299964 C7.74899965,8.13599964 7.79399965,8.38799963 7.97699964,8.51699962 C8.02799964,8.55299962 9.22199959,9.38399958 10.7159995,9.76799956 C11.4149995,10.0169996 11.4929995,10.7639995 11.5139995,11.4479995 C11.5139995,11.4749995 11.5139995,11.4989995 11.5169995,11.5229995 C11.5199995,11.7929995 11.5019995,12.2099995 11.4539995,12.4499994 C10.9679995,12.7259994 9.06299959,13.6799994 6.16499972,13.6799994 C3.27899985,13.6799994 1.36199994,12.7229994 0.872999961,12.4469994 C0.824999963,12.2069995 0.803999964,11.7899995 0.809999964,11.5199995 C0.809999964,11.4959995 0.812999964,11.4719995 0.812999964,11.4449995 C0.833999963,10.7609995 0.911999959,10.0139996 1.61099993,9.76499956 C3.10499986,9.38099958 4.29899981,8.54699962 4.34999981,8.51399962 C4.5329998,8.38499963 4.5779998,8.13299964 4.4489998,7.94999964 C4.31999981,7.76699965 4.06799982,7.72199965 3.88499983,7.85099965 C3.87299983,7.85999965 2.75399988,8.63999961 1.39499994,8.9849996 C1.38299994,8.9879996 1.37399994,8.9909996 1.36499994,8.9939996 C0.0629999972,9.44099958 0.0239999989,10.8299995 0.00599999973,11.4209995 C0.00599999973,11.4479995 0.00599999973,11.4719995 0.00299999987,11.4959995 C0.00299999987,11.4989995 0.00299999987,11.5019995 0.00299999987,11.5049995 C-4.33680869e-19,11.6609995 -0.00299999987,12.4619994 0.155999993,12.8639994 C0.185999992,12.9419994 0.239999989,13.0079994 0.311999986,13.0529994 C0.401999982,13.1129994 2.55899989,14.4869994 6.16799972,14.4869994 C9.77699956,14.4869994 11.9339995,13.1099994 12.0239995,13.0529994 C12.0929995,13.0079994 12.1499995,12.9419994 12.1799995,12.8639994 C12.3299994,12.4649994 12.3269994,11.6639995 12.3239994,11.5079995 Z" id="Path" fill="#000000" fill-rule="nonzero"></path>
                </g>
            </g>
        </g>
    </g>
</svg>