<?xml version="1.0" encoding="UTF-8"?>
<svg width="9px" height="2px" viewBox="0 0 9 2" version="1.1" xmlns="http://www.w3.org/2000/svg" xmlns:xlink="http://www.w3.org/1999/xlink">
    <!-- Generator: Sketch 58 (84663) - https://sketch.com -->
    <title>Line 3</title>
    <desc>Created with Sketch.</desc>
    <g id="Restaurant-Details-Desktop" stroke="none" stroke-width="1" fill="none" fill-rule="evenodd" stroke-linecap="square">
        <g id="07.-Restaurant-Detail-customize-dish-modal" transform="translate(-919.000000, -853.000000)" stroke="#7D7B7B" stroke-width="1.44000011">
            <g id="Group-25" transform="translate(100.000000, 288.000000)">
                <g id="Group-24" transform="translate(0.000000, 52.000000)">
                    <g id="Group-23" transform="translate(535.000000, 0.000000)">
                        <g id="Group-46" transform="translate(28.000000, 32.000000)">
                            <g id="Group-22" transform="translate(249.000000, 467.000000)">
                                <g id="Group-21" transform="translate(0.000000, 0.000000)">
                                    <g id="increment" transform="translate(7.200001, 2.880000)">
                                        <path d="M0.720000057,12.240001 L7.92000063,12.240001" id="Line-3"></path>
                                    </g>
                                </g>
                            </g>
                        </g>
                    </g>
                </g>
            </g>
        </g>
    </g>
</svg>