<?xml version="1.0" encoding="UTF-8"?>
<svg width="23px" height="24px" viewBox="0 0 23 24" version="1.1" xmlns="http://www.w3.org/2000/svg" xmlns:xlink="http://www.w3.org/1999/xlink">
    <!-- Generator: Sketch 58 (84663) - https://sketch.com -->
    <title>Group 14</title>
    <desc>Created with Sketch.</desc>
    <g id="Navigation-Panel---desktop" stroke="none" stroke-width="1" fill="none" fill-rule="evenodd">
        <g id="01.-delivery-tracker-default" transform="translate(-979.000000, -725.000000)">
            <g id="Group-13" transform="translate(921.000000, 80.000000)">
                <g id="Group-7" transform="translate(46.000000, 640.000000)">
                    <g id="Group-14" transform="translate(12.000000, 5.000000)">
                        <g id="Group-4" fill="#333333">
                            <path d="M11.714766,8.8817842e-15 C17.1705999,8.8817842e-15 21.7553346,3.7440194 23.0584785,8.81225919 C21.5064631,4.40217089 17.0552163,1.22577631 12.1613685,1.22577631 C6.0794639,1.22577631 1.14910604,6.15613417 1.14910604,12.2380388 C1.14910604,18.3199434 6.54742861,23.2257763 12.6293332,23.2257763 C13.8436429,23.2257763 15.0120473,23.0292331 16.1044704,22.6662229 C14.7493143,23.216815 13.26731,23.5199972 11.714766,23.5199972 C5.2448794,23.5199972 -1.88293825e-13,18.2548665 -1.88293825e-13,11.7599986 C-1.88293825e-13,5.26513071 5.2448794,8.8817842e-15 11.714766,8.8817842e-15 Z" id="Combined-Shape"></path>
                            <path d="M14.1068533,3.78648413 C17.79163,3.78648413 20.9592064,6.12390396 22.3514164,9.4706794 C20.9144846,6.55918297 18.0112491,4.45754874 14.890248,4.45754874 C10.4705416,4.45754874 6.29295597,8.4402706 6.29295597,13.202055 C6.29295597,17.9638394 10.7370433,22.4575487 15.1567498,22.4575487 C16.1599204,22.4575487 17.1268628,22.2379857 18.0223413,21.8428492 C16.8389505,22.4473416 15.5104229,22.7864841 14.1068533,22.7864841 C9.13629053,22.7864841 5.10685328,18.5331893 5.10685328,13.2864841 C5.10685328,8.03977901 9.13629053,3.78648413 14.1068533,3.78648413 Z" id="Combined-Shape" transform="translate(13.729188, 13.286484) scale(-1, 1) rotate(-52.000000) translate(-13.729188, -13.286484) "></path>
                        </g>
                        <path d="M11.2837321,5.19765588 L12.8101176,8.98606028 L16.7178615,9.33809445 C16.9888904,9.36263995 17.0991498,9.71725786 16.8934143,9.90393286 L13.9293437,12.5968328 L14.8175793,16.602917 C14.8791768,16.8813147 14.5915166,17.1002864 14.3586781,16.9523674 L11.0003837,14.8285356 L7.64208929,16.9523674 C7.40863485,17.0996404 7.12159061,16.8806687 7.18318809,16.602917 L8.0714237,12.5968328 L5.10673716,9.90328692 C4.90100159,9.71661192 5.0106451,9.36199402 5.28228997,9.33744852 L9.19003387,8.98541435 L10.7164193,5.19765588 C10.822367,4.93411471 11.1777844,4.93411471 11.2837321,5.19765588 Z" id="Path" fill="#FFD542" fill-rule="nonzero"></path>
                    </g>
                </g>
            </g>
        </g>
    </g>
</svg>