<?xml version="1.0" encoding="UTF-8"?>
<svg width="25px" height="22px" viewBox="0 0 25 22" version="1.1" xmlns="http://www.w3.org/2000/svg" xmlns:xlink="http://www.w3.org/1999/xlink">
    <!-- Generator: Sketch 58 (84663) - https://sketch.com -->
    <title>like (2)</title>
    <desc>Created with Sketch.</desc>
    <g id="Navigation-Panel---desktop" stroke="none" stroke-width="1" fill="none" fill-rule="evenodd">
        <g id="01.-delivery-tracker-default" transform="translate(-977.000000, -649.000000)">
            <g id="Group-13" transform="translate(921.000000, 80.000000)">
                <g id="Group-6" transform="translate(46.000000, 564.000000)">
                    <g id="like-(2)" transform="translate(11.000000, 5.000000)">
                        <circle id="Oval" fill="#FFD542" cx="15.5" cy="8.5" r="6.5"></circle>
                        <path d="M22.8408399,6.70647996 C22.5068799,3.03071998 19.9051599,0.363879998 16.6491599,0.363879998 C14.4799599,0.363879998 12.4937999,1.53119999 11.3761999,3.40207998 C10.2687199,1.50699999 8.36395995,0.363439998 6.22951997,0.363439998 C2.97395998,0.363439998 0.371799998,3.03027998 0.0382799998,6.70603996 C0.0118799999,6.86839996 -0.0963599995,7.72287996 0.232759999,9.11635995 C0.707079996,11.1262799 1.80267999,12.9544799 3.40031998,14.4020799 L11.3709199,21.6352399 L19.4783599,14.4025199 C21.0759999,12.9544799 22.1715999,11.1267199 22.6459199,9.11635995 C22.9750399,7.72331996 22.8667999,6.86883996 22.8408399,6.70647996 Z M21.7892399,8.91483995 C21.3562799,10.7505199 20.3526399,12.4229599 18.8896399,13.7482399 L11.3761999,20.4516399 L3.99167998,13.7499999 C2.52603999,12.4220799 1.52283999,10.7500799 1.08943999,8.91439995 C0.777919996,7.59571996 0.905959995,6.85079996 0.906399995,6.84595996 L0.912999995,6.80151996 C1.19899999,3.58115998 3.43463998,1.24343999 6.22951997,1.24343999 C8.29179996,1.24343999 10.1072399,2.51063999 10.9687599,4.55003998 L11.3739999,5.51055997 L11.7792399,4.55003998 C12.6271199,2.54187999 14.5384799,1.24387999 16.6495999,1.24387999 C19.4440399,1.24387999 21.6801199,3.58159998 21.9718399,6.84375996 C21.9727199,6.85079996 22.1007599,7.59615996 21.7892399,8.91483995 Z" id="Shape" stroke="#333333" stroke-width="0.3" fill="#333333" fill-rule="nonzero"></path>
                        <path d="M7.03955996,3.03775998 C4.61339998,3.03775998 2.63955999,5.01159997 2.63955999,7.43775996 C2.63955999,7.68107996 2.83623998,7.87775996 3.07955998,7.87775996 C3.32287998,7.87775996 3.51955998,7.68107996 3.51955998,7.43775996 C3.51955998,5.49691997 5.09871997,3.91775998 7.03955996,3.91775998 C7.28287996,3.91775998 7.47955996,3.72107998 7.47955996,3.47775998 C7.47955996,3.23443998 7.28243996,3.03775998 7.03955996,3.03775998 Z" id="Path" stroke="#333333" stroke-width="0.3" fill="#333333" fill-rule="nonzero"></path>
                    </g>
                </g>
            </g>
        </g>
    </g>
</svg>