<?xml version="1.0" encoding="UTF-8"?>
<svg width="29px" height="29px" viewBox="0 0 29 29" version="1.1" xmlns="http://www.w3.org/2000/svg" xmlns:xlink="http://www.w3.org/1999/xlink">
    <!-- Generator: Sketch 58 (84663) - https://sketch.com -->
    <title>instagram (8)</title>
    <desc>Created with Sketch.</desc>
    <defs>
        <linearGradient x1="146.512968%" y1="0%" x2="0%" y2="139.701417%" id="linearGradient-1">
            <stop stop-color="#CA30AB" offset="0%"></stop>
            <stop stop-color="#FFDD46" offset="100%"></stop>
        </linearGradient>
    </defs>
    <g id="Page-1" stroke="none" stroke-width="1" fill="none" fill-rule="evenodd">
        <g id="GoDysh_Splash_V03_121219" transform="translate(-879.000000, -3401.000000)">
            <g id="Group-11" transform="translate(0.000000, 3180.000000)">
                <g id="Group-10" transform="translate(0.000000, 202.000000)">
                    <g id="Group-15" transform="translate(693.000000, 18.000000)">
                        <g id="instagram-(8)" transform="translate(186.000000, 1.000000)">
                            <circle id="Oval" fill="#FFFFFF" cx="15" cy="14" r="12"></circle>
                            <path d="M20.9906616,9.58952334 C20.8572464,9.22799683 20.6444016,8.90076445 20.367836,8.63216402 C20.0992355,8.35559844 19.7722244,8.14275362 19.4104767,8.00933838 C19.1170959,7.89539336 18.6763611,7.75976562 17.8645859,7.72281645 C16.986435,7.68276978 16.7231445,7.67414092 14.5,7.67414092 C12.2766342,7.67414092 12.0133438,7.68254854 11.1354141,7.72259521 C10.3236389,7.75976562 9.88268281,7.89539336 9.58952334,8.00933838 C9.22777559,8.14275362 8.90054321,8.35559844 8.63216402,8.63216402 C8.35559844,8.90076445 8.14275362,9.22777559 8.00911714,9.58952334 C7.89517212,9.88290405 7.75954439,10.3238602 7.72259521,11.1356353 C7.68254854,12.013565 7.67391968,12.2768555 7.67391968,14.5002212 C7.67391968,16.7233658 7.68254854,16.9866562 7.72259521,17.8648071 C7.75954439,18.6765823 7.89517212,19.1173172 8.00911714,19.410698 C8.14275362,19.7724457 8.3553772,20.0994568 8.63194278,20.3680572 C8.90054321,20.6446228 9.22755429,20.8574677 9.58930205,20.9908829 C9.88268281,21.1050491 10.3236389,21.2406769 11.1354141,21.277626 C12.0133438,21.3176728 12.276413,21.3260803 14.4997788,21.3260803 C16.7233658,21.3260803 16.9866562,21.3176728 17.8643647,21.277626 C18.6761398,21.2406769 19.1170959,21.1050491 19.4104767,20.9908829 C20.1366272,20.7107773 20.7105561,20.1368484 20.9906616,19.410698 C21.1046066,19.1173172 21.2402344,18.6765823 21.2774048,17.8648071 C21.3174515,16.9866562 21.3258591,16.7233658 21.3258591,14.5002212 C21.3258591,12.2768555 21.3174515,12.013565 21.2774048,11.1356353 C21.2404556,10.3238602 21.1048279,9.88290405 20.9906616,9.58952334 L20.9906616,9.58952334 Z M14.5,18.7754822 C12.1385727,18.7754822 10.2242966,16.8614273 10.2242966,14.5 C10.2242966,12.1385727 12.1385727,10.2245178 14.5,10.2245178 C16.8612061,10.2245178 18.7754822,12.1385727 18.7754822,14.5 C18.7754822,16.8614273 16.8612061,18.7754822 14.5,18.7754822 Z M18.944519,11.054657 C18.3927154,11.054657 17.945343,10.6072846 17.945343,10.055481 C17.945343,9.50367734 18.3927154,9.05630493 18.944519,9.05630493 C19.4963227,9.05630493 19.9436951,9.50367734 19.9436951,10.055481 C19.9434738,10.6072846 19.4963227,11.054657 18.944519,11.054657 Z" id="Shape" fill="url(#linearGradient-1)" fill-rule="nonzero"></path>
                            <path d="M14.5,0 C6.49309541,0 0,6.49309541 0,14.5 C0,22.5069046 6.49309541,29 14.5,29 C22.5069046,29 29,22.5069046 29,14.5 C29,6.49309541 22.5069046,0 14.5,0 Z M22.7759476,17.9327316 C22.7356796,18.8190689 22.5947418,19.4241943 22.3889771,19.9538727 C21.9564285,21.0723038 21.0723038,21.9564285 19.9538727,22.3889771 C19.4244156,22.5947418 18.8190689,22.7354584 17.9329529,22.7759476 C17.0450668,22.8164368 16.7614212,22.8261719 14.5002212,22.8261719 C12.2388,22.8261719 11.9553757,22.8164368 11.0672684,22.7759476 C10.1811523,22.7354584 9.57580566,22.5947418 9.04634859,22.3889771 C8.49056245,22.1798935 7.98743437,21.8522187 7.57147978,21.4285202 C7.14800264,21.0127869 6.82032773,20.5094375 6.61124419,19.9538727 C6.40547945,19.4244156 6.2645416,18.8190689 6.22427368,17.9329529 C6.18334199,17.0448456 6.17382813,16.7612 6.17382813,14.5 C6.17382813,12.2388 6.18334199,11.9551544 6.22405244,11.0672684 C6.26432036,10.1809311 6.40503691,9.57580566 6.61080171,9.04612735 C6.81988525,8.49056245 7.14778134,7.98721313 7.57147978,7.57147978 C7.98721313,7.14778134 8.49056245,6.82010649 9.04612735,6.61102295 C9.57580566,6.40525821 10.1809311,6.2645416 11.0672684,6.22405244 C11.9551544,6.18356323 12.2388,6.17382813 14.5,6.17382813 C16.7612,6.17382813 17.0448456,6.18356323 17.9327316,6.22427368 C18.8190689,6.2645416 19.4241943,6.40525821 19.9538727,6.61080171 C20.5094375,6.81988525 21.0127869,7.14778134 21.4287415,7.57147978 C21.8522187,7.98743437 22.1801147,8.49056245 22.3889771,9.04612735 C22.5949631,9.57580566 22.7356796,10.1809311 22.7761689,11.0672684 C22.816658,11.9551544 22.8261719,12.2388 22.8261719,14.5 C22.8261719,16.7612 22.816658,17.0448456 22.7759476,17.9327316 L22.7759476,17.9327316 Z" id="Shape" fill="url(#linearGradient-1)" fill-rule="nonzero"></path>
                            <path d="M17.2753906,14.5 C17.2753906,16.0328369 16.0328369,17.2753906 14.5,17.2753906 C12.9671631,17.2753906 11.7246094,16.0328369 11.7246094,14.5 C11.7246094,12.9671631 12.9671631,11.7246094 14.5,11.7246094 C16.0328369,11.7246094 17.2753906,12.9671631 17.2753906,14.5 Z" id="Path" fill="#E58B75" fill-rule="nonzero"></path>
                        </g>
                    </g>
                </g>
            </g>
        </g>
    </g>
</svg>