<?xml version="1.0" encoding="UTF-8"?>
<svg width="24px" height="24px" viewBox="0 0 24 24" version="1.1" xmlns="http://www.w3.org/2000/svg" xmlns:xlink="http://www.w3.org/1999/xlink">
    <!-- Generator: Sketch 52.3 (67297) - http://www.bohemiancoding.com/sketch -->
    <title>icon/information/wait time</title>
    <desc>Created with Sketch.</desc>
    <defs>
        <path d="M14.5885379,10.3617849 C15.7492139,9.35500717 17.1938312,8.10186553 17.1938312,5.43872846 L17.1938312,4.35299608 L17.682548,4.35299608 C17.8353907,4.35299608 17.9593116,4.22907523 17.9593116,4.07623249 L17.9593116,3.27676359 C17.9593116,3.12392085 17.8353907,3 17.6827591,3 L6.27676359,3 C6.12392085,3 6,3.12392085 6,3.27676359 L6,4.07623249 C6,4.22907523 6.12392085,4.35299608 6.27676359,4.35299608 L6.76548038,4.35299608 L6.76548038,5.43893957 C6.76548038,8.10207664 8.20988656,9.35521828 9.37056255,10.361996 C10.1909312,11.0738547 10.8390351,11.6360374 10.8390351,12.5001056 C10.8390351,13.3641737 10.1909312,13.9265675 9.37056255,14.6382151 C8.20988656,15.6449928 6.76569149,16.8979234 6.76569149,19.5606382 L6.76569149,20.6470039 L6.2769747,20.6470039 C6.12413195,20.6470039 6.00021111,20.7709248 6.00021111,20.9237675 L6.00021111,21.7232364 C6.00021111,21.8760792 6.12413195,22 6.2769747,22 L17.6829702,22 C17.8358129,22 17.9597338,21.8760792 17.9597338,21.7232364 L17.9597338,20.9237675 C17.9597338,20.7709248 17.8358129,20.6470039 17.6829702,20.6470039 L17.1942534,20.6470039 L17.1942534,19.5606382 C17.1942534,16.8979234 15.7498472,15.6449928 14.5891712,14.6382151 C13.7685915,13.9265675 13.1206987,13.3641737 13.1206987,12.5001056 C13.1202764,11.6358263 13.7683804,11.0736436 14.5885379,10.3617849 Z M14.161676,15.1303097 C15.2773858,16.0982434 16.5419273,17.1951645 16.5419273,19.5604271 L16.5419273,20.6467928 L16.2746636,20.6467928 C16.2402529,20.6028822 16.1944423,20.5587605 16.1323763,20.5154832 L12.4299508,17.9458673 C12.3049744,17.8626904 12.1451651,17.8168798 11.9796558,17.8168798 C11.8141465,17.8168798 11.6543372,17.8626904 11.5245053,17.9494561 L7.82693526,20.5156943 C7.76486928,20.5587605 7.71905868,20.6030933 7.68464795,20.6470039 L7.41738425,20.6470039 L7.41738425,19.5606382 C7.41738425,17.1953756 8.68213687,16.0984545 9.79763558,15.1305208 C10.6684592,14.3751736 11.490939,13.661626 11.490939,12.5001056 C11.490939,12.4209398 11.4865057,12.3445184 11.4791169,12.2695748 C11.4791169,12.2695748 11.652015,12.6385929 11.9798669,12.6385929 C12.3077188,12.6385929 12.4806169,12.2695748 12.4806169,12.2695748 C12.4732281,12.3445184 12.4685837,12.4211509 12.4685837,12.5001056 C12.4683726,13.661626 13.2910634,14.3749625 14.161676,15.1303097 Z M7.77605804,7.39634004 C7.55376051,6.85315719 7.41717314,6.21434206 7.41717314,5.43851735 L7.41717314,4.35278497 L16.5419273,4.35278497 L16.5419273,5.43851735 C16.5419273,6.21434206 16.405551,6.85315719 16.1832535,7.39634004 L7.77605804,7.39634004 Z M12.2241197,13.184098 C12.2241197,13.3192076 12.1147654,13.4285619 11.9796558,13.4285619 C11.8445462,13.4285619 11.7351918,13.3189965 11.7351918,13.184098 C11.7351918,13.0491995 11.8447573,12.939634 11.9796558,12.939634 C12.1145543,12.939634 12.2241197,13.0489883 12.2241197,13.184098 Z M12.3056077,17.0133999 C12.170594,17.0133999 12.0611438,16.9039496 12.0611438,16.7689359 C12.0611438,16.6339222 12.170594,16.524472 12.3056077,16.524472 C12.4406214,16.524472 12.5500717,16.6339222 12.5500717,16.7689359 C12.5500717,16.9039496 12.4406214,17.0133999 12.3056077,17.0133999 Z M12.3053966,14.0804658 C12.1703829,14.0804658 12.0609327,13.9710155 12.0609327,13.8360018 C12.0609327,13.7009881 12.1703829,13.5915379 12.3053966,13.5915379 C12.4404103,13.5915379 12.5498606,13.7009881 12.5498606,13.8360018 C12.5498606,13.9710155 12.4404103,14.0804658 12.3053966,14.0804658 Z M12.9573005,17.9912557 C12.8222868,17.9912557 12.7128365,17.8818054 12.7128365,17.7467917 C12.7128365,17.611778 12.8222868,17.5023278 12.9573005,17.5023278 C13.0923142,17.5023278 13.2017644,17.611778 13.2017644,17.7467917 C13.2017644,17.8818054 13.0923142,17.9912557 12.9573005,17.9912557 Z M12.3056077,15.3838513 C12.170594,15.3838513 12.0611438,15.2744011 12.0611438,15.1393873 C12.0611438,15.0043736 12.170594,14.8949234 12.3056077,14.8949234 C12.4406214,14.8949234 12.5500717,15.0043736 12.5500717,15.1393873 C12.5500717,15.2744011 12.4406214,15.3838513 12.3056077,15.3838513 Z M11.653915,14.5691826 C11.5189012,14.5691826 11.409451,14.4597323 11.409451,14.3247186 C11.409451,14.1897049 11.5189012,14.0802547 11.653915,14.0802547 C11.7889287,14.0802547 11.8983789,14.1897049 11.8983789,14.3247186 C11.8983789,14.4597323 11.7889287,14.5691826 11.653915,14.5691826 Z M11.653915,16.1987311 C11.5189012,16.1987311 11.409451,16.0892809 11.409451,15.9542672 C11.409451,15.8192535 11.5189012,15.7098032 11.653915,15.7098032 C11.7889287,15.7098032 11.8983789,15.8192535 11.8983789,15.9542672 C11.8983789,16.0892809 11.7889287,16.1987311 11.653915,16.1987311 Z M11.3277519,17.6650926 C11.1927382,17.6650926 11.083288,17.5556424 11.083288,17.4206287 C11.083288,17.2856149 11.1927382,17.1761647 11.3277519,17.1761647 C11.4627656,17.1761647 11.5722159,17.2856149 11.5722159,17.4206287 C11.5722159,17.5556424 11.4627656,17.6650926 11.3277519,17.6650926 Z" id="path-1"></path>
    </defs>
    <g id="icon/information/wait-time" stroke="none" stroke-width="1" fill="none" fill-rule="evenodd">
        <g>
            <rect id="bounds" x="0" y="0" width="24" height="24"></rect>
            <mask id="mask-2" fill="white">
                <use xlink:href="#path-1"></use>
            </mask>
            <use id="Shape" fill="#454545" xlink:href="#path-1"></use>
        </g>
    </g>
</svg>