<?xml version="1.0" encoding="utf-8"?>
<!-- Generator: Adobe Illustrator 21.0.2, SVG Export Plug-In . SVG Version: 6.00 Build 0)  -->
<svg version="1.1" id="Layer_1" xmlns="http://www.w3.org/2000/svg" xmlns:xlink="http://www.w3.org/1999/xlink" x="0px" y="0px"
	 viewBox="0 0 21.5 21.5" style="enable-background:new 0 0 21.5 21.5;" xml:space="preserve">
<style type="text/css">
	.st0{fill:none;}
	.st1{display:none;fill:none;stroke:#000000;}
	.st2{fill:none;stroke:#000000;}
</style>
<rect id="backgroundrect" x="-1.1" y="-1.1" class="st0" width="24" height="24"/>
<title>icon/information/dish</title>
<desc>Created with Sketch.</desc>
<title>Layer 1</title>
<g id="svg_1">
	<rect id="bounds" x="-1.1" y="-1.1" class="st1" width="24" height="24"/>
	<path id="Combined-Shape" class="st2" d="M2.7,10.9c0,4.6,3.8,8.3,8.4,8.3c1.4,0,2.8-0.3,3.9-1c-1.3,0.7-2.8,1.2-4.4,1.2
		c-4.8,0-8.7-3.8-8.7-8.5c0-4.7,3.9-8.5,8.7-8.5c2.5,0,4.8,1,6.3,2.7c-1.5-1.5-3.6-2.4-5.9-2.4C6.4,2.7,2.7,6.3,2.7,10.9z
		 M15.7,13.6c1.6-2.8,0.6-6.3-2.1-7.9c-1.4-0.8-2.9-1-4.3-0.6c1.5-0.5,3.2-0.3,4.7,0.5c2.8,1.7,3.8,5.3,2.2,8.2
		c-1.6,2.9-5.2,3.9-8,2.2c-0.9-0.5-1.7-1.3-2.2-2.2c0.5,0.8,1.2,1.5,2,2C10.6,17.4,14.1,16.4,15.7,13.6z"/>
	<polygon id="Star" class="st2" points="10.6,13.1 8.3,14.4 8.7,11.7 6.8,9.9 9.4,9.5 10.6,7.1 11.8,9.5 14.4,9.9 12.5,11.7 
		13,14.4 	"/>
</g>
</svg>
