<?xml version="1.0" encoding="UTF-8"?>
<svg width="200px" height="200px" viewBox="0 0 200 200" version="1.1" xmlns="http://www.w3.org/2000/svg" xmlns:xlink="http://www.w3.org/1999/xlink">
    <!-- Generator: Sketch 58 (84663) - https://sketch.com -->
    <title>Group 40</title>
    <desc>Created with Sketch.</desc>
    <defs>
        <circle id="path-1" cx="87" cy="87" r="79"></circle>
        <filter x="-21.2%" y="-18.7%" width="142.4%" height="142.4%" filterUnits="objectBoundingBox" id="filter-2">
            <feOffset dx="0" dy="4" in="SourceAlpha" result="shadowOffsetOuter1"></feOffset>
            <feGaussianBlur stdDeviation="10.5" in="shadowOffsetOuter1" result="shadowBlurOuter1"></feGaussianBlur>
            <feColorMatrix values="0 0 0 0 0   0 0 0 0 0   0 0 0 0 0  0 0 0 0.0907998252 0" type="matrix" in="shadowBlurOuter1"></feColorMatrix>
        </filter>
    </defs>
    <g id="Page-1" stroke="none" stroke-width="1" fill="none" fill-rule="evenodd">
        <g id="GoDysh_Splash_V03_121219" transform="translate(-1068.000000, -2378.000000)">
            <g id="Bitmap" transform="translate(265.000000, 2285.000000)">
                <g id="Rectangle-+-Bitmap-Copy-+-Rectangle-Copy-+-Bitmap-Copy-2-Mask">
                    <g id="Group-34" transform="translate(738.000000, 102.000000)">
                        <g id="Group-18">
                            <g id="Group-40" transform="translate(78.000000, 0.000000)">
                                <g id="Oval-Copy-2">
                                    <use fill="black" fill-opacity="1" filter="url(#filter-2)" xlink:href="#path-1"></use>
                                    <use fill="#FFD542" fill-rule="evenodd" xlink:href="#path-1"></use>
                                </g>
                                <circle id="Oval-Copy-6" stroke="#C0C0C0" stroke-width="0.841994996" cx="87" cy="87" r="86.5790025"></circle>
                                <g id="star-(2)" transform="translate(53.000000, 52.000000)" fill-rule="nonzero" stroke="#333333" stroke-width="1.2">
                                    <path d="M2.42430042,11.9994536 C2.37983799,11.9994536 2.33537556,11.9850265 2.29800135,11.9563979 C2.23184469,11.9059033 2.19876636,11.8204683 2.212728,11.7359349 L2.8766573,7.67427621 L0.064784585,4.7981133 C0.00636052417,4.73815097 -0.0146893213,4.64865832 0.0104416167,4.56728088 C0.0357873489,4.48567801 0.103017978,4.42616653 0.183995444,4.4137683 L4.06962508,3.82113312 L5.80752609,0.125785634 C5.84361154,0.0486912132 5.91835997,0 5.99998182,0 L5.99998182,0 C6.08181846,0 6.15656689,0.0486912132 6.19243755,0.125785634 L7.93012377,3.82113312 L11.8159682,4.4137683 C11.8969457,4.42616653 11.9639615,4.48545259 11.989522,4.56728088 C12.014653,4.64865832 11.9938179,4.73837639 11.9351791,4.7981133 L9.12330633,7.67472705 L9.78702085,11.7361603 C9.80076769,11.8206937 9.76768936,11.9061287 9.70174749,11.9566233 C9.63559084,12.0075688 9.54773995,12.014106 9.47535426,11.9737554 L5.99998182,10.0563135 L2.52417979,11.9737554 C2.49281982,11.9908875 2.45845272,11.9994536 2.42430042,11.9994536 Z" id="Shape"></path>
                                    <path d="M63.4243004,54.9994536 C63.379838,54.9994536 63.3353756,54.9850265 63.2980013,54.9563979 C63.2318447,54.9059033 63.1987664,54.8204683 63.212728,54.7359349 L63.8766573,50.6742762 L61.0647846,47.7981133 C61.0063605,47.738151 60.9853107,47.6486583 61.0104416,47.5672809 C61.0357873,47.485678 61.103018,47.4261665 61.1839954,47.4137683 L65.0696251,46.8211331 L66.8075261,43.1257856 C66.8436115,43.0486912 66.91836,43 66.9999818,43 L66.9999818,43 C67.0818185,43 67.1565669,43.0486912 67.1924375,43.1257856 L68.9301238,46.8211331 L72.8159682,47.4137683 C72.8969457,47.4261665 72.9639615,47.4854526 72.989522,47.5672809 C73.014653,47.6486583 72.9938179,47.7383764 72.9351791,47.7981133 L70.1233063,50.6747271 L70.7870208,54.7361603 C70.8007677,54.8206937 70.7676894,54.9061287 70.7017475,54.9566233 C70.6355908,55.0075688 70.54774,55.014106 70.4753543,54.9737554 L66.9999818,53.0563135 L63.5241798,54.9737554 C63.4928198,54.9908875 63.4584527,54.9994536 63.4243004,54.9994536 Z" id="Shape-Copy"></path>
                                </g>
                                <g id="positive-vote" transform="translate(49.000000, 48.000000)">
                                    <path d="M2.50392946,46.5 L25.4654721,32.3715974 L43.4959468,60.0472491 L22.5348448,74.6286343 C13.5248622,69.2724663 8.00356665,64.4120046 5.97095803,60.0472491 C3.93834941,55.6824936 2.78267322,52.0209369 2.50392946,49.0625791 L2.50392946,46.5 Z" id="Path-6" fill="#FFFFFF"></path>
                                    <path d="M75.9981901,33.4150544 C75.1887609,32.193924 73.9618116,31.3524627 72.5353342,31.033493 C73.4555461,29.2749938 73.4180228,27.0808869 72.2458694,25.3128662 C71.4120203,24.054245 70.1540996,23.2413483 68.7848005,22.9336852 C69.028999,22.4683228 69.2094678,21.9660645 69.3172725,21.436432 C69.6162671,19.9635773 69.3244198,18.4627533 68.493549,17.210083 C67.6841198,15.9883576 66.4571705,15.1468963 65.0306931,14.8285218 C65.950905,13.0700226 65.9133817,10.8759155 64.7412283,9.1072998 C63.0276686,6.52162174 59.526694,5.81048584 56.9381884,7.52316277 L51.3335319,11.2317809 C48.34597,9.71786491 45.1684097,8.6437225 41.8705369,8.03196713 C40.8282255,6.45080566 39.6161664,4.98092644 38.259375,3.66696159 L35.9406792,1.4216766 C34.2426052,-0.223159828 31.5796488,-0.470123367 29.6081916,0.834915199 C27.2757968,2.37799072 26.6349242,5.52960205 28.1793317,7.85998535 C28.2400836,7.95222477 28.2996441,8.04505924 28.3586092,8.13789371 C20.7580755,9.67442318 13.8311727,13.7043914 8.70419253,19.6094971 C3.1406327,26.0180511 0.0762376238,34.2255706 0.0762376238,42.719925 C0.0762376238,44.3480988 0.187616065,45.979248 0.40799037,47.5669556 C2.10606436,59.9097747 10.3349629,70.5464631 21.8825804,75.3268433 C26.1649906,77.1002197 30.7088723,78 35.3861696,78 C42.7937268,78 49.8844213,75.7332917 55.8923035,71.4456481 C61.7697478,67.2502441 66.1671101,61.4605866 68.6096921,54.7027131 C68.8378094,54.0731048 68.5108215,53.3774414 67.8806698,53.1501159 C67.2499227,52.9227905 66.5542544,53.2489014 66.3267327,53.8791047 C64.0521117,60.1722106 59.9561262,65.5637513 54.4807163,69.4717254 C48.8873762,73.4642028 42.2844832,75.5744019 35.3861696,75.5744019 C31.8196782,75.5744019 28.3371674,75.0120392 25.0041537,73.9027863 L34.8804997,67.3680726 C34.8810953,67.3674774 34.8816909,67.3674774 34.8822866,67.3668823 C34.8828822,67.3668823 34.8828822,67.3662873 34.8834777,67.3656921 L43.09153,61.9348755 L43.0921257,61.9348755 C43.8288908,61.4468994 44.3321782,60.7018433 44.5084777,59.8359832 C44.6847772,58.9701234 44.5132426,58.0870055 44.0248453,57.3508758 L43.916445,57.1866302 L45.5108834,56.1315308 C46.6484916,55.3787384 48.0165996,55.0835724 49.3638614,55.2995911 C51.3144725,55.6126099 53.2954594,55.1841431 54.9417156,54.0945282 L68.1665609,45.344284 C68.0760287,46.4904328 67.9271272,47.6300355 67.7192604,48.7505951 C67.5965656,49.4093628 68.0319539,50.0425415 68.6912901,50.1645355 C68.7657411,50.1788177 68.8407874,50.1853638 68.914047,50.1853638 C69.4876161,50.1853638 69.9974552,49.7771302 70.1058555,49.1933441 C70.4423732,47.3848571 70.6359453,45.5323333 70.6859762,43.6774292 L74.4126856,41.2113647 C75.6664372,40.3818053 76.5223237,39.1136628 76.8213181,37.6414032 C77.1209081,36.1685485 76.8284653,34.6677246 75.9981901,33.4150544 L75.9981901,33.4150544 Z M48.9767173,12.7909241 L45.267876,15.2450866 L44.5376624,13.2794953 C44.2327119,12.4594574 43.883091,11.655487 43.4959468,10.8687744 C45.3774676,11.3454437 47.2095529,11.9881439 48.9767173,12.7909241 Z M10.5380646,21.1989899 C15.4655168,15.5235902 22.1774057,11.7084504 29.5200418,10.3855591 C30.6981513,13.2372437 30.9804688,16.4233704 30.2764619,19.4601287 L27.3168936,32.2349854 C26.851725,31.7386781 26.24778,31.3964997 25.5675975,31.2584381 C24.7003945,31.0816956 23.8171101,31.2536774 23.080345,31.7416535 L14.6971844,37.2879181 C14.6965888,37.2879181 14.6965888,37.2879181 14.6959931,37.2885132 C14.6959931,37.2885132 14.6953975,37.2885132 14.6953975,37.2891082 L2.6045869,45.2889404 C2.5384747,44.4367676 2.50392946,43.5780487 2.50392946,42.719925 C2.50392946,34.8099518 5.35747993,27.1665802 10.5380646,21.1989899 Z M42.1296257,59.3521729 C42.0825727,59.5830688 41.9479656,59.782425 41.7508198,59.9127503 L41.7514156,59.9127503 L34.5421953,64.6824188 L21.1618966,44.7450257 C20.7884515,44.1886139 20.0344136,44.0404359 19.4775217,44.4135589 C18.9212252,44.7866821 18.7723237,45.5394744 19.1457688,46.0958862 L32.517729,66.0219727 L22.2262453,72.8316193 C11.9996829,68.3624725 4.68146658,58.9243011 2.9220451,47.9418639 L15.0271504,39.9586945 L16.4202738,42.0355682 C16.6549428,42.3842926 17.0385133,42.572937 17.4298267,42.572937 C17.6621133,42.572937 17.8973777,42.5068817 18.1046488,42.36763 C18.6615408,41.9945068 18.8104425,41.2411195 18.4369973,40.6847077 L17.0534035,38.6227113 L24.421055,33.7637786 C24.6170096,33.6334534 24.8522742,33.5882262 25.0833694,33.6352386 C25.3144648,33.682251 25.5139928,33.8167419 25.6444307,34.0131226 L42.0009747,58.6904297 C42.1308168,58.8862152 42.1766785,59.1212769 42.1296257,59.3521729 L42.1296257,59.3521729 Z M74.4424659,37.1581878 C74.2721225,37.9960785 73.7855121,38.7173309 73.0719755,39.1892396 L68.8116027,42.008194 C68.8104114,42.0087891 68.8092203,42.0099792 68.8074334,42.0105744 L53.6010055,52.072403 C52.4633973,52.8251953 51.0952893,53.1209564 49.7480275,52.9043426 C47.7980121,52.5919189 45.817025,53.0197907 44.1701733,54.1094056 L42.5757349,55.164505 L29.1793549,34.9533691 L32.6422107,20.0076141 C33.5338336,16.1573639 33.0639,12.1018066 31.3652305,8.56874088 C31.3497448,8.53184505 31.3330678,8.49613949 31.3140084,8.46102898 C30.9876161,7.79333496 30.6171488,7.14527897 30.2032024,6.52043148 C29.3979425,5.30525211 29.7320777,3.66220085 30.9489015,2.85704037 C31.9769183,2.17684929 33.3658725,2.30538933 34.2509436,3.16291813 L36.5696396,5.40879818 C39.0777382,7.83856201 41.0462176,10.8521118 42.2612547,14.123932 L43.5239403,17.5225067 C43.5263227,17.5290527 43.5287052,17.5344085 43.5310876,17.5403595 C43.5340656,17.5480957 43.5376392,17.5564271 43.5406173,17.5641632 C43.5495514,17.5849915 43.5578899,17.6040345 43.566824,17.6201019 C43.5912438,17.6712799 43.6180461,17.7218628 43.6502089,17.7700653 C44.020676,18.3288574 44.7735225,18.4817962 45.3322015,18.1116486 L58.2788985,9.54588314 C59.7512376,8.57171631 61.74235,8.97578434 62.7173577,10.4468537 C63.6923654,11.917923 63.2879486,13.907318 61.8156095,14.881485 L60.6917002,15.6253509 C60.6917002,15.6253509 60.6911045,15.6253509 60.6905089,15.625946 L58.1836015,17.2850648 C58.1800278,17.287445 58.1776455,17.2898255 58.1740718,17.2916107 C58.1597772,17.3017272 58.1460782,17.3112487 58.1347618,17.3207702 C57.6165842,17.7010345 57.4825727,18.4240723 57.8417233,18.9656068 C58.211595,19.5243988 58.9650371,19.6773376 59.5243116,19.3071899 L62.0330059,17.6468812 C62.7459468,17.1761628 63.5994508,17.0101318 64.4374691,17.1803284 C65.2754874,17.3505249 65.9979579,17.8367157 66.4696782,18.5496369 C66.9419941,19.2619629 67.1087639,20.1159211 66.9384205,20.9532165 C66.768077,21.7911071 66.2814666,22.5123597 65.5679302,22.9842682 L61.935922,25.387848 C61.3766475,25.7574006 61.2235767,26.5095978 61.594044,27.06839 C61.8275217,27.4206849 62.2134747,27.6117096 62.6071705,27.6117096 C62.8370745,27.6117096 63.0699567,27.5462494 63.2760366,27.4099731 L63.8382891,27.0380402 L65.7835396,25.7508545 C67.2564743,24.7766877 69.2469911,25.1807555 70.2219988,26.6518249 C71.1970065,28.1234894 70.7925897,30.1122894 69.3202505,31.0870514 L67.5060334,32.2873535 C67.4965037,32.2933044 67.486974,32.2998504 67.4774443,32.3063965 L65.6882426,33.490036 C65.1289681,33.8595885 64.9758973,34.612381 65.3463644,35.1711732 C65.5798421,35.5234681 65.9657951,35.7144928 66.3594911,35.7144928 C66.5893951,35.7144928 66.8222772,35.6490326 67.028357,35.5127563 L67.5906095,35.1408234 C67.5906095,35.1408234 67.5906095,35.1402282 67.5912052,35.1402282 L69.5364557,33.8536377 C70.2493966,33.3817292 71.1034963,33.2151032 71.9421101,33.3858949 C72.780724,33.5554963 73.502599,34.0422821 73.9749149,34.7546081 C74.4466352,35.4669342 74.6128094,36.3208923 74.4424659,37.1581878 Z" id="Shape" fill="#000000" fill-rule="nonzero"></path>
                                </g>
                                <g id="Group-12" transform="translate(5.000000, 14.000000)">
                                    <circle id="Oval" stroke="#FFD542" fill="#FFFFFF" cx="18" cy="18" r="18"></circle>
                                    <text id="3" font-family="BarlowSemiCondensed-Medium, Barlow Semi Condensed" font-size="25" font-style="condensed" font-weight="400" fill="#333333">
                                        <tspan x="13" y="27">3</tspan>
                                    </text>
                                </g>
                            </g>
                        </g>
                    </g>
                </g>
            </g>
        </g>
    </g>
</svg>