<?xml version="1.0" encoding="UTF-8"?>
<svg width="80px" height="34px" viewBox="0 0 80 34" version="1.1" xmlns="http://www.w3.org/2000/svg" xmlns:xlink="http://www.w3.org/1999/xlink">
    <!-- Generator: Sketch 55.2 (78181) - https://sketchapp.com -->
    <title>Group 2</title>
    <desc>Created with Sketch.</desc>
    <defs>
        <linearGradient x1="100%" y1="50%" x2="0%" y2="50%" id="linearGradient-1">
            <stop stop-color="#87B177" stop-opacity="0" offset="0%"></stop>
            <stop stop-color="#4F7942" stop-opacity="0.6" offset="100%"></stop>
        </linearGradient>
    </defs>
    <g id="✌️-1.-Search-Result---dish-mobile" stroke="none" stroke-width="1" fill="none" fill-rule="evenodd">
        <g id="Mobile/SearchResult/Dish/State:tooltips" transform="translate(-270.000000, -209.000000)">
            <g id="Group-2" transform="translate(270.000000, 209.000000)">
                <path d="M13.6818182,-1.42108547e-14 L80.5,-1.42108547e-14 L80.5,34 L13.6818182,34 C4.56060606,34 1.20792265e-13,28.3333333 1.20792265e-13,17 C1.20792265e-13,5.66666667 4.56060606,-1.42108547e-14 13.6818182,-1.42108547e-14 Z" id="Rectangle" fill="url(#linearGradient-1)"></path>
                <path id="Line" d="M17.4087533,17.5 L23.7451306,21.0642122 C23.9858096,21.1995941 24.0711697,21.5044517 23.9357878,21.7451306 C23.8004059,21.9858096 23.4955483,22.0711697 23.2548694,21.9357878 L15.2548694,17.4357878 C14.9150435,17.2446357 14.9150435,16.7553643 15.2548694,16.5642122 L23.2548694,12.0642122 C23.4955483,11.9288303 23.8004059,12.0141904 23.9357878,12.2548694 C24.0711697,12.4955483 23.9858096,12.8004059 23.7451306,12.9357878 L17.4087533,16.5 L48,16.5 C48.2761424,16.5 48.5,16.7238576 48.5,17 C48.5,17.2761424 48.2761424,17.5 48,17.5 L17.4087533,17.5 Z" fill="#FFFFFF" fill-rule="nonzero"></path>
            </g>
        </g>
    </g>
</svg>