<?xml version="1.0" encoding="UTF-8"?>
<svg width="200px" height="200px" viewBox="0 0 200 200" version="1.1" xmlns="http://www.w3.org/2000/svg" xmlns:xlink="http://www.w3.org/1999/xlink">
    <!-- Generator: Sketch 58 (84663) - https://sketch.com -->
    <title>Group 38</title>
    <desc>Created with Sketch.</desc>
    <defs>
        <circle id="path-1" cx="87" cy="87" r="79"></circle>
        <filter x="-21.2%" y="-18.7%" width="142.4%" height="142.4%" filterUnits="objectBoundingBox" id="filter-2">
            <feOffset dx="0" dy="4" in="SourceAlpha" result="shadowOffsetOuter1"></feOffset>
            <feGaussianBlur stdDeviation="10.5" in="shadowOffsetOuter1" result="shadowBlurOuter1"></feGaussianBlur>
            <feColorMatrix values="0 0 0 0 0   0 0 0 0 0   0 0 0 0 0  0 0 0 0.0907998252 0" type="matrix" in="shadowBlurOuter1"></feColorMatrix>
        </filter>
    </defs>
    <g id="Page-1" stroke="none" stroke-width="1" fill="none" fill-rule="evenodd">
        <g id="GoDysh_Splash_V03_121219" transform="translate(-330.000000, -2378.000000)">
            <g id="Bitmap" transform="translate(265.000000, 2285.000000)">
                <g id="Rectangle-+-Bitmap-Copy-+-Rectangle-Copy-+-Bitmap-Copy-2-Mask">
                    <g id="Group-33" transform="translate(0.000000, 102.000000)">
                        <g id="Group-16">
                            <g id="Group-38" transform="translate(78.000000, 0.000000)">
                                <g id="Oval">
                                    <use fill="black" fill-opacity="1" filter="url(#filter-2)" xlink:href="#path-1"></use>
                                    <use fill="#FFD542" fill-rule="evenodd" xlink:href="#path-1"></use>
                                </g>
                                <circle id="Oval-Copy-6" stroke="#C0C0C0" stroke-width="0.841994996" cx="87" cy="87" r="86.5790025"></circle>
                                <g id="cutlery" transform="translate(45.000000, 58.000000)">
                                    <circle id="Oval" fill="#FFFFFF" cx="44.5" cy="29.5" r="20.5"></circle>
                                    <path d="M59.2091915,15.5528812 C58.6138298,16.008725 58.4998936,16.8618687 58.954734,17.4583625 C61.5003936,20.7975312 62.8457447,24.7886562 62.8457447,29 C62.8457447,39.4938312 54.327117,48.03125 43.856383,48.03125 C33.3856489,48.03125 24.8670213,39.4938312 24.8670213,29 C24.8670213,18.5061688 33.3856489,9.96875 43.856383,9.96875 C48.0584574,9.96875 52.0407979,11.3170687 55.3727979,13.868525 C55.9677979,14.3243687 56.8192447,14.2101812 57.2740851,13.6135062 C57.7289255,13.0170125 57.6149894,12.1638687 57.0196277,11.708025 C53.2107234,8.79153125 48.658883,7.25 43.856383,7.25 C31.8898298,7.25 22.1542553,17.00705 22.1542553,29 C22.1542553,40.99295 31.8898298,50.75 43.856383,50.75 C55.8229362,50.75 65.5585106,40.99295 65.5585106,29 C65.5585106,24.1869062 64.0203723,19.625025 61.1102979,15.8079 C60.6556383,15.2114063 59.8045532,15.0970375 59.2091915,15.5528812 Z" id="Path" fill="#333333" fill-rule="nonzero"></path>
                                    <path d="M43.856383,0 C27.9009787,0 14.9202128,13.0092188 14.9202128,29 C14.9202128,44.9907813 27.9009787,58 43.856383,58 C59.8119681,58 72.7925532,44.9907813 72.7925532,29 C72.7925532,13.0092187 59.8119681,0 43.856383,0 Z M43.856383,55.28125 C29.3967979,55.28125 17.6329787,43.4914812 17.6329787,29 C17.6329787,14.5085188 29.3967979,2.71875 43.856383,2.71875 C58.3159681,2.71875 70.0797872,14.5085188 70.0797872,29 C70.0797872,43.4914812 58.3159681,55.28125 43.856383,55.28125 Z" id="Shape" fill="#333333" fill-rule="nonzero"></path>
                                    <path d="M12.2074468,0 C11.4583617,0 10.8510638,0.60845625 10.8510638,1.359375 L10.8510638,12.6875 L8.13829787,12.6875 L8.13829787,1.359375 C8.13829787,0.60845625 7.531,0 6.78191489,0 C6.03282979,0 5.42553191,0.60845625 5.42553191,1.359375 L5.42553191,12.6875 L2.71276596,12.6875 L2.71276596,1.359375 C2.71276596,0.60845625 2.10546809,0 1.35638298,0 C0.607297872,0 0,0.60845625 0,1.359375 L0,17.671875 C0,20.9543125 2.33370213,23.7004313 5.42553191,24.3319062 L5.42553191,56.640625 C5.42553191,57.3915437 6.03282979,58 6.78191489,58 C7.531,58 8.13829787,57.3915437 8.13829787,56.640625 L8.13829787,24.3319062 C11.2301277,23.7004313 13.5638298,20.9543125 13.5638298,17.671875 L13.5638298,1.359375 C13.5638298,0.60845625 12.9565319,0 12.2074468,0 Z M6.78191489,21.75 C4.53809574,21.75 2.71276596,19.9204625 2.71276596,17.671875 L2.71276596,15.40625 L10.8510638,15.40625 L10.8510638,17.671875 C10.8510638,19.9204625 9.02573404,21.75 6.78191489,21.75 Z" id="Shape" fill="#333333" fill-rule="nonzero"></path>
                                    <path d="M83.643617,0 C79.9039787,0 76.8617021,3.0489875 76.8617021,6.796875 L76.8617021,31.71875 C76.8617021,32.4696688 77.4688191,33.078125 78.2180851,33.078125 L82.287234,33.078125 L82.287234,56.640625 C82.287234,57.3915437 82.8943511,58 83.643617,58 C84.392883,58 85,57.3915437 85,56.640625 L85,1.359375 C85,0.60845625 84.392883,0 83.643617,0 Z M82.287234,30.359375 L79.5744681,30.359375 L79.5744681,6.796875 C79.5744681,5.0246125 80.7084043,3.51280625 82.287234,2.95165625 L82.287234,30.359375 Z" id="Shape" fill="#333333" fill-rule="nonzero"></path>
                                </g>
                                <g id="Group-12" transform="translate(3.000000, 14.000000)">
                                    <circle id="Oval" stroke="#FFD542" fill="#FFFFFF" cx="18" cy="18" r="18"></circle>
                                    <text id="1" font-family="BarlowSemiCondensed-Medium, Barlow Semi Condensed" font-size="25" font-style="condensed" font-weight="400" fill="#333333">
                                        <tspan x="13" y="27">1</tspan>
                                    </text>
                                </g>
                            </g>
                        </g>
                    </g>
                </g>
            </g>
        </g>
    </g>
</svg>