<?xml version="1.0" encoding="UTF-8"?>
<svg width="24px" height="24px" viewBox="0 0 24 24" version="1.1" xmlns="http://www.w3.org/2000/svg" xmlns:xlink="http://www.w3.org/1999/xlink">
    <!-- Generator: Sketch 52.3 (67297) - http://www.bohemiancoding.com/sketch -->
    <title>icon/action/favorited/dish</title>
    <desc>Created with Sketch.</desc>
    <defs>
        <path d="M13.3535711,20.1306542 C12.5935711,20.8206542 11.4235711,20.8206542 10.6635711,20.1206542 L10.5535711,20.0206542 C5.30357106,15.2706542 1.87357106,12.1606542 2.00357106,8.28065415 C2.06357106,6.58065415 2.93357106,4.95065415 4.34357106,3.99065415 C6.98357106,2.19065415 10.2435711,3.03065415 12.0035711,5.09065415 C13.7635711,3.03065415 17.0235711,2.18065415 19.6635711,3.99065415 C21.0735711,4.95065415 21.9435711,6.58065415 22.0035711,8.28065415 C22.1435711,12.1606542 18.7035711,15.2706542 13.4535711,20.0406542 L13.3535711,20.1306542 Z M13.1511903,18.5620441 L13.236196,18.4855389 C17.6989989,14.4307638 20.6231973,11.7870844 20.5041892,8.48886062 C20.4531857,7.04376256 19.7136356,5.65816854 18.5150542,4.84211317 C16.270902,3.30350877 13.4997139,4.0260578 12.0036124,5.77717662 C10.5075109,4.0260578 7.73632285,3.31200935 5.49217058,4.84211317 C4.29358925,5.65816854 3.55403906,7.04376256 3.5030356,8.48886062 C3.39252811,11.7870844 6.30822595,14.4307638 10.7710288,18.4685378 L10.8645351,18.5535436 C11.510579,19.1485839 12.5051464,19.1485839 13.1511903,18.5620441 Z" id="path-1"></path>
    </defs>
    <g id="icon/action/favorited/dish" stroke="none" stroke-width="1" fill="none" fill-rule="evenodd">
        <g>
            <rect id="bounds" x="0" y="0" width="24" height="24"></rect>
            <mask id="mask-2" fill="white">
                <use xlink:href="#path-1"></use>
            </mask>
            <use id="Combined-Shape" fill="#454545" xlink:href="#path-1"></use>
        </g>
    </g>
</svg>