<?xml version="1.0" encoding="UTF-8"?>
<svg width="24px" height="24px" viewBox="0 0 24 24" version="1.1" xmlns="http://www.w3.org/2000/svg" xmlns:xlink="http://www.w3.org/1999/xlink">
    <!-- Generator: Sketch 52.3 (67297) - http://www.bohemiancoding.com/sketch -->
    <title>icon/action/favorited/dish favorited</title>
    <desc>Created with Sketch.</desc>
    <g id="icon/action/favorited/dish-favorited" stroke="none" stroke-width="1" fill="none" fill-rule="evenodd">
        <g id="icon/action/favorited/dish">
            <rect id="bounds" x="0" y="0" width="24" height="24"></rect>
            <path d="M13.3535711,20.1306542 C12.5935711,20.8206542 11.4235711,20.8206542 10.6635711,20.1206542 L10.5535711,20.0206542 C5.30357106,15.2706542 1.87357106,12.1606542 2.00357106,8.28065415 C2.06357106,6.58065415 2.93357106,4.95065415 4.34357106,3.99065415 C6.98357106,2.19065415 10.2435711,3.03065415 12.0035711,5.09065415 C13.7635711,3.03065415 17.0235711,2.18065415 19.6635711,3.99065415 C21.0735711,4.95065415 21.9435711,6.58065415 22.0035711,8.28065415 C22.1435711,12.1606542 18.7035711,15.2706542 13.4535711,20.0406542 L13.3535711,20.1306542 Z" id="Shape" fill="#454545"></path>
        </g>
    </g>
</svg>